(kicad_pcb (version 20171130) (host pcbnew "(5.1.2)-1")

  (general
    (thickness 1.6)
    (drawings 144)
    (tracks 0)
    (zones 0)
    (modules 0)
    (nets 1)
  )

  (page A4)
  (layers
    (0 F.Cu signal)
    (31 B.Cu signal)
    (32 B.Adhes user)
    (33 F.Adhes user)
    (34 B.Paste user)
    (35 F.Paste user)
    (36 B.SilkS user)
    (37 F.SilkS user)
    (38 B.Mask user)
    (39 F.Mask user)
    (40 Dwgs.User user)
    (41 Cmts.User user)
    (42 Eco1.User user)
    (43 Eco2.User user)
    (44 Edge.Cuts user)
    (45 Margin user)
    (46 B.CrtYd user)
    (47 F.CrtYd user)
    (48 B.Fab user)
    (49 F.Fab user)
  )

  (setup
    (last_trace_width 0.25)
    (user_trace_width 0.5)
    (user_trace_width 0.5)
    (trace_clearance 0.2)
    (zone_clearance 0.508)
    (zone_45_only no)
    (trace_min 0.2)
    (via_size 0.8)
    (via_drill 0.4)
    (via_min_size 0.4)
    (via_min_drill 0.3)
    (user_via 1.2 0.6)
    (uvia_size 0.3)
    (uvia_drill 0.1)
    (uvias_allowed no)
    (uvia_min_size 0.2)
    (uvia_min_drill 0.1)
    (edge_width 0.2)
    (segment_width 0.6)
    (pcb_text_width 0.3)
    (pcb_text_size 1.5 1.5)
    (mod_edge_width 0.15)
    (mod_text_size 1 1)
    (mod_text_width 0.15)
    (pad_size 4.3 4.3)
    (pad_drill 4.3)
    (pad_to_mask_clearance 0.2)
    (solder_mask_min_width 0.25)
    (aux_axis_origin 0 0)
    (visible_elements 7FFFFFFF)
    (pcbplotparams
      (layerselection 0x010f0_ffffffff)
      (usegerberextensions true)
      (usegerberattributes false)
      (usegerberadvancedattributes false)
      (creategerberjobfile false)
      (excludeedgelayer true)
      (linewidth 0.100000)
      (plotframeref false)
      (viasonmask false)
      (mode 1)
      (useauxorigin false)
      (hpglpennumber 1)
      (hpglpenspeed 20)
      (hpglpendiameter 15.000000)
      (psnegative false)
      (psa4output false)
      (plotreference true)
      (plotvalue true)
      (plotinvisibletext false)
      (padsonsilk false)
      (subtractmaskfromsilk false)
      (outputformat 1)
      (mirror false)
      (drillshape 0)
      (scaleselection 1)
      (outputdirectory "../stimjim_fabricationFiles_20180225/"))
  )

  (net 0 "")

  (net_class Default "This is the default net class."
    (clearance 0.2)
    (trace_width 0.25)
    (via_dia 0.8)
    (via_drill 0.4)
    (uvia_dia 0.3)
    (uvia_drill 0.1)
  )

  (net_class thick ""
    (clearance 0.2)
    (trace_width 0.5)
    (via_dia 1)
    (via_drill 0.5)
    (uvia_dia 0.3)
    (uvia_drill 0.1)
  )

  (gr_arc (start 151.2 82.5) (end 151.2 86.5) (angle -90) (layer Edge.Cuts) (width 0.15) (tstamp 5C956A6A))
  (gr_arc (start 151.2 55.5) (end 155.2 55.5) (angle -90) (layer Edge.Cuts) (width 0.15) (tstamp 5C956A69))
  (gr_arc (start 19.2 55.5) (end 19.2 51.5) (angle -90) (layer Edge.Cuts) (width 0.15) (tstamp 5C956A68))
  (gr_line (start 15.2 82.5) (end 15.2 55.5) (layer Edge.Cuts) (width 0.15) (tstamp 5C956A67))
  (gr_line (start 19.2 51.5) (end 151.2 51.5) (layer Edge.Cuts) (width 0.15) (tstamp 5C956A66))
  (gr_line (start 151.2 86.5) (end 19.2 86.5) (layer Edge.Cuts) (width 0.15) (tstamp 5C956A65))
  (gr_line (start 155.2 55.5) (end 155.2 82.5) (layer Edge.Cuts) (width 0.15) (tstamp 5C956A64))
  (gr_arc (start 19.2 82.5) (end 15.2 82.5) (angle -90) (layer Edge.Cuts) (width 0.15) (tstamp 5C956A63))
  (gr_arc (start 151.2 19.5) (end 155.2 19.5) (angle -90) (layer Edge.Cuts) (width 0.15) (tstamp 5C956A3E))
  (gr_arc (start 151.2 46.5) (end 151.2 50.5) (angle -90) (layer Edge.Cuts) (width 0.15) (tstamp 5C956A3E))
  (gr_arc (start 19.2 46.5) (end 15.2 46.5) (angle -90) (layer Edge.Cuts) (width 0.15) (tstamp 5C956A3E))
  (gr_arc (start 19.2 19.5) (end 19.2 15.5) (angle -90) (layer Edge.Cuts) (width 0.15))
  (gr_text "+ -" (at 49.3 77.4) (layer F.SilkS) (tstamp 5C956A14)
    (effects (font (size 1.5 1.5) (thickness 0.3)))
  )
  (gr_text "+ -" (at 90.8 77.3) (layer F.SilkS) (tstamp 5C956A0A)
    (effects (font (size 1.5 1.5) (thickness 0.3)))
  )
  (dimension 12 (width 0.3) (layer F.Fab)
    (gr_text "12.000 mm" (at 43.8 34 90) (layer F.Fab)
      (effects (font (size 1.5 1.5) (thickness 0.3)))
    )
    (feature1 (pts (xy 39.2 28) (xy 42.286421 28)))
    (feature2 (pts (xy 39.2 40) (xy 42.286421 40)))
    (crossbar (pts (xy 41.7 40) (xy 41.7 28)))
    (arrow1a (pts (xy 41.7 28) (xy 42.286421 29.126504)))
    (arrow1b (pts (xy 41.7 28) (xy 41.113579 29.126504)))
    (arrow2a (pts (xy 41.7 40) (xy 42.286421 38.873496)))
    (arrow2b (pts (xy 41.7 40) (xy 41.113579 38.873496)))
  )
  (gr_text v0.18 (at 140.2 37) (layer F.SilkS) (tstamp 5C73D19C)
    (effects (font (size 1 1) (thickness 0.25)))
  )
  (gr_text "m\n\n" (at 133.2 38.5) (layer F.SilkS) (tstamp 5C73D19B)
    (effects (font (size 3 3) (thickness 0.6)))
  )
  (gr_line (start 135.2 34.75) (end 136.7 34.75) (layer F.SilkS) (width 0.6) (tstamp 5C73D19A))
  (gr_line (start 136.95 31.5) (end 135.2 34.75) (layer F.SilkS) (width 0.6) (tstamp 5C73D199))
  (gr_arc (start 129.099999 37.65) (end 128.5 37.749999) (angle -159.2) (layer F.SilkS) (width 0.6) (tstamp 5C73D198))
  (gr_line (start 136.7 33.75) (end 136.95 31.5) (layer F.SilkS) (width 0.6) (tstamp 5C73D197))
  (gr_line (start 138.45 33.75) (end 136.7 33.75) (layer F.SilkS) (width 0.6) (tstamp 5C73D196))
  (gr_line (start 136.2 37.25) (end 138.45 33.75) (layer F.SilkS) (width 0.6) (tstamp 5C73D195))
  (gr_line (start 136.7 34.75) (end 136.2 37.25) (layer F.SilkS) (width 0.6) (tstamp 5C73D194))
  (gr_text "s\n" (at 128.2 33) (layer F.SilkS) (tstamp 5C73D193)
    (effects (font (size 3 3) (thickness 0.6)))
  )
  (gr_line (start 130.85 32.25) (end 130.85 34.25) (layer F.SilkS) (width 0.6) (tstamp 5C73D192))
  (gr_line (start 130.85 35.25) (end 130.85 37.25) (layer F.SilkS) (width 0.6) (tstamp 5C73D191))
  (gr_line (start 129.7 37.5) (end 129.7 37.75) (layer F.SilkS) (width 0.6) (tstamp 5C73D190))
  (gr_text "m\n\n" (at 133.2 35.5) (layer F.SilkS) (tstamp 5C73D18F)
    (effects (font (size 3 3) (thickness 0.6)))
  )
  (gr_line (start 129.7 34.25) (end 129.7 30.75) (layer F.SilkS) (width 0.6) (tstamp 5C73D18E))
  (gr_line (start 129.7 35.25) (end 129.7 37.5) (layer F.SilkS) (width 0.6) (tstamp 5C73D18D))
  (gr_line (start 129.15 31.75) (end 130.25 31.75) (layer F.SilkS) (width 0.6) (tstamp 5C73D18C))
  (gr_line (start 129.7 34.25) (end 129.95 34.25) (layer F.SilkS) (width 0.6) (tstamp 5C73D18B))
  (gr_text "m\n\n" (at 89.95 60.5) (layer F.SilkS) (tstamp 5C73DED5)
    (effects (font (size 3 3) (thickness 0.6)))
  )
  (gr_text v0.18 (at 96.95 59) (layer F.SilkS) (tstamp 5C73DED4)
    (effects (font (size 1 1) (thickness 0.25)))
  )
  (gr_text "s\n" (at 84.95 55) (layer F.SilkS) (tstamp 5C73DED3)
    (effects (font (size 3 3) (thickness 0.6)))
  )
  (gr_text "m\n\n" (at 89.95 57.5) (layer F.SilkS) (tstamp 5C73DED2)
    (effects (font (size 3 3) (thickness 0.6)))
  )
  (gr_line (start 87.6 57.25) (end 87.6 59.25) (layer F.SilkS) (width 0.6) (tstamp 5C73DED1))
  (gr_line (start 87.6 54.25) (end 87.6 56.25) (layer F.SilkS) (width 0.6) (tstamp 5C73DED0))
  (gr_line (start 86.45 57.25) (end 86.45 59.5) (layer F.SilkS) (width 0.6) (tstamp 5C73DECF))
  (gr_line (start 86.45 59.5) (end 86.45 59.75) (layer F.SilkS) (width 0.6) (tstamp 5C73DECE))
  (gr_line (start 86.45 56.25) (end 86.45 52.75) (layer F.SilkS) (width 0.6) (tstamp 5C73DECD))
  (gr_line (start 85.9 53.75) (end 87 53.75) (layer F.SilkS) (width 0.6) (tstamp 5C73DECC))
  (gr_line (start 86.45 56.25) (end 86.7 56.25) (layer F.SilkS) (width 0.6) (tstamp 5C73DECB))
  (gr_arc (start 85.849999 59.65) (end 85.25 59.749999) (angle -159.2) (layer F.SilkS) (width 0.6) (tstamp 5C73DECA))
  (gr_line (start 93.7 53.5) (end 91.95 56.75) (layer F.SilkS) (width 0.6) (tstamp 5C73DEC9))
  (gr_line (start 91.95 56.75) (end 93.45 56.75) (layer F.SilkS) (width 0.6) (tstamp 5C73DEC8))
  (gr_line (start 93.45 56.75) (end 92.95 59.25) (layer F.SilkS) (width 0.6) (tstamp 5C73DEC7))
  (gr_line (start 92.95 59.25) (end 95.2 55.75) (layer F.SilkS) (width 0.6) (tstamp 5C73DEC6))
  (gr_line (start 95.2 55.75) (end 93.45 55.75) (layer F.SilkS) (width 0.6) (tstamp 5C73DEC5))
  (gr_line (start 93.45 55.75) (end 93.7 53.5) (layer F.SilkS) (width 0.6) (tstamp 5C73DEC4))
  (gr_line (start 96.2 78.75) (end 97.7 77.25) (layer F.SilkS) (width 0.2) (tstamp 5C6BCEB5))
  (gr_line (start 70.95 78.75) (end 96.2 78.75) (layer F.SilkS) (width 0.2) (tstamp 5C6BCEB4))
  (gr_line (start 69.45 77.25) (end 70.95 78.75) (layer F.SilkS) (width 0.2) (tstamp 5C6BCEB3))
  (gr_line (start 54.45 79.25) (end 55.95 77.75) (layer F.SilkS) (width 0.2))
  (gr_line (start 29.2 79.25) (end 54.45 79.25) (layer F.SilkS) (width 0.2))
  (gr_line (start 27.7 77.75) (end 29.2 79.25) (layer F.SilkS) (width 0.2))
  (gr_circle (center 49.95 36.25) (end 52.45 36.25) (layer Edge.Cuts) (width 0.2))
  (gr_text GPIO (at 116.2 34.75 270) (layer F.SilkS) (tstamp 5C6BCA30)
    (effects (font (size 1.5 1.5) (thickness 0.3)))
  )
  (gr_text "GND\n\n+3.3V\n\n00\n\n01\n\n02\n\n03\n\n04\n\n05" (at 99.95 29.75 270) (layer F.SilkS) (tstamp 5C6BCA06)
    (effects (font (size 0.9 1) (thickness 0.225)) (justify right))
  )
  (gr_text "11\n\n10\n\n09\n\n08\n\n07\n\n06\n\nGND\n\nVUSB" (at 100.2 40 90) (layer F.SilkS)
    (effects (font (size 0.9 1) (thickness 0.225)) (justify right))
  )
  (gr_text GPIO (at 83.45 35 90) (layer F.SilkS) (tstamp 5C6BC853)
    (effects (font (size 1.5 1.5) (thickness 0.3)))
  )
  (gr_text PROGRAM (at 49.7 32.5) (layer F.SilkS) (tstamp 5C6BC853)
    (effects (font (size 1.5 1.5) (thickness 0.3)))
  )
  (gr_text USB (at 35.45 23.25) (layer F.SilkS) (tstamp 5C6BC853)
    (effects (font (size 1.5 1.5) (thickness 0.3)))
  )
  (gr_line (start 75.2 31) (end 76.2 32) (layer F.SilkS) (width 0.2))
  (gr_line (start 59.45 31) (end 75.2 31) (layer F.SilkS) (width 0.2))
  (gr_line (start 58.45 32) (end 59.45 31) (layer F.SilkS) (width 0.2))
  (gr_text "OUT 0" (at 62.2 32.75) (layer F.SilkS) (tstamp 5C6BC853)
    (effects (font (size 1 1) (thickness 0.25)))
  )
  (gr_text "OUT 1" (at 72.45 32.75) (layer F.SilkS) (tstamp 5C6BC853)
    (effects (font (size 1 1) (thickness 0.25)))
  )
  (gr_text "Stimulation in progress" (at 67.45 29.5) (layer F.SilkS)
    (effects (font (size 1 1) (thickness 0.25)))
  )
  (gr_text "INPUT 1" (at 138.45 79) (layer F.SilkS) (tstamp 5C6BC853)
    (effects (font (size 1.5 1.5) (thickness 0.3)))
  )
  (gr_text "INPUT 0" (at 115.2 79.5) (layer F.SilkS) (tstamp 5C6BC853)
    (effects (font (size 1.5 1.5) (thickness 0.3)))
  )
  (gr_text "OUTPUT 1" (at 82.95 81.5) (layer F.SilkS) (tstamp 5C6BC853)
    (effects (font (size 1.5 1.5) (thickness 0.3)))
  )
  (gr_text "OUTPUT 0" (at 41.2 82) (layer F.SilkS)
    (effects (font (size 1.5 1.5) (thickness 0.3)))
  )
  (dimension 99.5 (width 0.3) (layer F.Fab)
    (gr_text "99.500 mm" (at 64.95 17.15) (layer F.Fab)
      (effects (font (size 1.5 1.5) (thickness 0.3)))
    )
    (feature1 (pts (xy 15.2 30) (xy 15.2 18.663579)))
    (feature2 (pts (xy 114.7 30) (xy 114.7 18.663579)))
    (crossbar (pts (xy 114.7 19.25) (xy 15.2 19.25)))
    (arrow1a (pts (xy 15.2 19.25) (xy 16.326504 18.663579)))
    (arrow1b (pts (xy 15.2 19.25) (xy 16.326504 19.836421)))
    (arrow2a (pts (xy 114.7 19.25) (xy 113.573496 18.663579)))
    (arrow2b (pts (xy 114.7 19.25) (xy 113.573496 19.836421)))
  )
  (dimension 70 (width 0.3) (layer F.Fab)
    (gr_text "70.000 mm" (at 50.2 20.65) (layer F.Fab)
      (effects (font (size 1.5 1.5) (thickness 0.3)))
    )
    (feature1 (pts (xy 15.2 30) (xy 15.2 22.163579)))
    (feature2 (pts (xy 85.2 30) (xy 85.2 22.163579)))
    (crossbar (pts (xy 85.2 22.75) (xy 15.2 22.75)))
    (arrow1a (pts (xy 15.2 22.75) (xy 16.326504 22.163579)))
    (arrow1b (pts (xy 15.2 22.75) (xy 16.326504 23.336421)))
    (arrow2a (pts (xy 85.2 22.75) (xy 84.073496 22.163579)))
    (arrow2b (pts (xy 85.2 22.75) (xy 84.073496 23.336421)))
  )
  (dimension 57.75 (width 0.3) (layer F.Fab)
    (gr_text "57.750 mm" (at 44.075 52.35) (layer F.Fab)
      (effects (font (size 1.5 1.5) (thickness 0.3)))
    )
    (feature1 (pts (xy 15.2 37) (xy 15.2 50.836421)))
    (feature2 (pts (xy 72.95 37) (xy 72.95 50.836421)))
    (crossbar (pts (xy 72.95 50.25) (xy 15.2 50.25)))
    (arrow1a (pts (xy 15.2 50.25) (xy 16.326504 49.663579)))
    (arrow1b (pts (xy 15.2 50.25) (xy 16.326504 50.836421)))
    (arrow2a (pts (xy 72.95 50.25) (xy 71.823496 49.663579)))
    (arrow2b (pts (xy 72.95 50.25) (xy 71.823496 50.836421)))
  )
  (dimension 47.25 (width 0.3) (layer F.Fab)
    (gr_text "47.250 mm" (at 38.825 48.85) (layer F.Fab)
      (effects (font (size 1.5 1.5) (thickness 0.3)))
    )
    (feature1 (pts (xy 15.2 37) (xy 15.2 47.336421)))
    (feature2 (pts (xy 62.45 37) (xy 62.45 47.336421)))
    (crossbar (pts (xy 62.45 46.75) (xy 15.2 46.75)))
    (arrow1a (pts (xy 15.2 46.75) (xy 16.326504 46.163579)))
    (arrow1b (pts (xy 15.2 46.75) (xy 16.326504 47.336421)))
    (arrow2a (pts (xy 62.45 46.75) (xy 61.323496 46.163579)))
    (arrow2b (pts (xy 62.45 46.75) (xy 61.323496 47.336421)))
  )
  (gr_line (start 85.2 30) (end 114.7 30) (layer Edge.Cuts) (width 0.2) (tstamp 5C6BC5EA))
  (gr_line (start 114.7 40) (end 85.2 40) (layer Edge.Cuts) (width 0.2) (tstamp 5C6BC5EB))
  (gr_line (start 85.2 40) (end 85.2 30) (layer Edge.Cuts) (width 0.2) (tstamp 5C6BC5E9))
  (gr_line (start 114.7 30) (end 114.7 40) (layer Edge.Cuts) (width 0.2) (tstamp 5C6BC5E8))
  (gr_circle (center 72.9 37) (end 76.1 37) (layer Edge.Cuts) (width 0.2) (tstamp 5C6BC5C0))
  (gr_circle (center 62.45 37) (end 65.65 37) (layer Edge.Cuts) (width 0.2) (tstamp 5C6BC52D))
  (dimension 34.75 (width 0.3) (layer F.Fab)
    (gr_text "34.750 mm" (at 32.575 34.9) (layer F.Fab)
      (effects (font (size 1.5 1.5) (thickness 0.3)))
    )
    (feature1 (pts (xy 15.2 37.75) (xy 15.2 36.413579)))
    (feature2 (pts (xy 49.95 37.75) (xy 49.95 36.413579)))
    (crossbar (pts (xy 49.95 37) (xy 15.2 37)))
    (arrow1a (pts (xy 15.2 37) (xy 16.326504 36.413579)))
    (arrow1b (pts (xy 15.2 37) (xy 16.326504 37.586421)))
    (arrow2a (pts (xy 49.95 37) (xy 48.823496 36.413579)))
    (arrow2b (pts (xy 49.95 37) (xy 48.823496 37.586421)))
  )
  (dimension 24.25 (width 0.3) (layer F.Fab)
    (gr_text "24.250 mm" (at 27.325 25.4) (layer F.Fab)
      (effects (font (size 1.5 1.5) (thickness 0.3)))
    )
    (feature1 (pts (xy 15.2 33.5) (xy 15.2 26.913579)))
    (feature2 (pts (xy 39.45 33.5) (xy 39.45 26.913579)))
    (crossbar (pts (xy 39.45 27.5) (xy 15.2 27.5)))
    (arrow1a (pts (xy 15.2 27.5) (xy 16.326504 26.913579)))
    (arrow1b (pts (xy 15.2 27.5) (xy 16.326504 28.086421)))
    (arrow2a (pts (xy 39.45 27.5) (xy 38.323496 26.913579)))
    (arrow2b (pts (xy 39.45 27.5) (xy 38.323496 28.086421)))
  )
  (dimension 16.25 (width 0.3) (layer F.Fab)
    (gr_text "16.250 mm" (at 23.325 29.400001) (layer F.Fab)
      (effects (font (size 1.5 1.5) (thickness 0.3)))
    )
    (feature1 (pts (xy 15.2 32) (xy 15.2 30.91358)))
    (feature2 (pts (xy 31.45 32) (xy 31.45 30.91358)))
    (crossbar (pts (xy 31.45 31.500001) (xy 15.2 31.500001)))
    (arrow1a (pts (xy 15.2 31.500001) (xy 16.326504 30.91358)))
    (arrow1b (pts (xy 15.2 31.500001) (xy 16.326504 32.086422)))
    (arrow2a (pts (xy 31.45 31.500001) (xy 30.323496 30.91358)))
    (arrow2b (pts (xy 31.45 31.500001) (xy 30.323496 32.086422)))
  )
  (gr_line (start 31.45 25) (end 39.45 25) (layer Edge.Cuts) (width 0.2))
  (gr_line (start 39.45 28) (end 39.45 25) (layer Edge.Cuts) (width 0.2))
  (gr_line (start 31.45 28) (end 39.45 28) (layer Edge.Cuts) (width 0.2))
  (gr_line (start 31.45 25) (end 31.45 28) (layer Edge.Cuts) (width 0.2))
  (gr_poly (pts (xy 20.7 41.75) (xy 149.7 41.75) (xy 149.7 40.25) (xy 20.7 40.25)) (layer F.Fab) (width 0.15))
  (dimension 140 (width 0.3) (layer F.Fab) (tstamp 5C6BC0ED)
    (gr_text "140.000 mm" (at 85.2 94.6) (layer F.Fab) (tstamp 5C6BC0ED)
      (effects (font (size 1.5 1.5) (thickness 0.3)))
    )
    (feature1 (pts (xy 15.2 86.5) (xy 15.2 93.086421)))
    (feature2 (pts (xy 155.2 86.5) (xy 155.2 93.086421)))
    (crossbar (pts (xy 155.2 92.5) (xy 15.2 92.5)))
    (arrow1a (pts (xy 15.2 92.5) (xy 16.326504 91.913579)))
    (arrow1b (pts (xy 15.2 92.5) (xy 16.326504 93.086421)))
    (arrow2a (pts (xy 155.2 92.5) (xy 154.073496 91.913579)))
    (arrow2b (pts (xy 155.2 92.5) (xy 154.073496 93.086421)))
  )
  (gr_line (start 15.2 71.45) (end 20.2 71.45) (layer F.Fab) (width 0.2) (tstamp 5C6BC0EC))
  (gr_circle (center 147.7 81.75) (end 149.7 81.75) (layer Edge.Cuts) (width 0.2) (tstamp 5C6BC0EB))
  (dimension 35 (width 0.3) (layer F.Fab) (tstamp 5C6BC0E9)
    (gr_text "35.000 mm" (at 160.3 69 90) (layer F.Fab) (tstamp 5C6BC0E9)
      (effects (font (size 1.5 1.5) (thickness 0.3)))
    )
    (feature1 (pts (xy 155.2 51.5) (xy 158.786421 51.5)))
    (feature2 (pts (xy 155.2 86.5) (xy 158.786421 86.5)))
    (crossbar (pts (xy 158.2 86.5) (xy 158.2 51.5)))
    (arrow1a (pts (xy 158.2 51.5) (xy 158.786421 52.626504)))
    (arrow1b (pts (xy 158.2 51.5) (xy 157.613579 52.626504)))
    (arrow2a (pts (xy 158.2 86.5) (xy 158.786421 85.373496)))
    (arrow2b (pts (xy 158.2 86.5) (xy 157.613579 85.373496)))
  )
  (gr_line (start 15.2 61.85) (end 20.2 61.85) (layer F.Fab) (width 0.2) (tstamp 5C6BC0E5))
  (gr_line (start 15.2 72.95) (end 20.2 72.95) (layer F.Fab) (width 0.2) (tstamp 5C6BC0E4))
  (gr_line (start 15.2 63.35) (end 20.2 63.35) (layer F.Fab) (width 0.2) (tstamp 5C6BC0E3))
  (gr_line (start 95.45 76.25) (end 87.2 76.25) (layer Edge.Cuts) (width 0.2) (tstamp 5C6BC0E2))
  (gr_line (start 15.2 65.05) (end 20.2 65.05) (layer F.Fab) (width 0.2) (tstamp 5C6BC0DF))
  (gr_circle (center 75.8 69.5) (end 82.4 69.5) (layer Edge.Cuts) (width 0.2) (tstamp 5C6BC0DE))
  (gr_line (start 46.2 62.5) (end 54.45 62.5) (layer Edge.Cuts) (width 0.2) (tstamp 5C6BC0DD))
  (gr_line (start 15.2 69.75) (end 20.2 69.75) (layer F.Fab) (width 0.2) (tstamp 5C6BC0DC))
  (gr_line (start 95.45 62.5) (end 95.45 76.25) (layer Edge.Cuts) (width 0.2) (tstamp 5C6BC0DB))
  (gr_circle (center 22.7 56.25) (end 24.7 56.25) (layer Edge.Cuts) (width 0.2) (tstamp 5C6BC0DA))
  (gr_line (start 15.2 68.25) (end 20.2 68.25) (layer F.Fab) (width 0.2) (tstamp 5C6BC0D9))
  (gr_circle (center 115.3 69.5) (end 121.9 69.5) (layer Edge.Cuts) (width 0.2) (tstamp 5C6BC0D8))
  (gr_circle (center 138.2 69.5) (end 144.8 69.5) (layer Edge.Cuts) (width 0.2) (tstamp 5C6BC0D7))
  (gr_line (start 15.2 77.85) (end 22.2 77.85) (layer F.Fab) (width 0.2) (tstamp 5C6BC0D5))
  (gr_line (start 54.45 76.25) (end 46.2 76.25) (layer Edge.Cuts) (width 0.2) (tstamp 5C6BC0D4))
  (gr_line (start 87.2 62.5) (end 95.45 62.5) (layer Edge.Cuts) (width 0.2) (tstamp 5C6BC0D3))
  (gr_line (start 15.2 76.15) (end 22.2 76.15) (layer F.Fab) (width 0.2) (tstamp 5C6BC0D2))
  (gr_line (start 15.2 66.55) (end 20.2 66.55) (layer F.Fab) (width 0.2) (tstamp 5C6BC0D1))
  (gr_line (start 54.45 62.5) (end 54.45 76.25) (layer Edge.Cuts) (width 0.2) (tstamp 5C6BC0D0))
  (gr_line (start 15.2 74.65) (end 20.2 74.65) (layer F.Fab) (width 0.2) (tstamp 5C6BC0CF))
  (gr_circle (center 147.7 56.25) (end 149.7 56.25) (layer Edge.Cuts) (width 0.2) (tstamp 5C6BC0CE))
  (gr_line (start 46.2 76.25) (end 46.2 62.5) (layer Edge.Cuts) (width 0.2) (tstamp 5C6BC0CD))
  (gr_line (start 87.2 76.25) (end 87.2 62.5) (layer Edge.Cuts) (width 0.2) (tstamp 5C6BC0CC))
  (gr_circle (center 22.7 81.75) (end 24.7 81.75) (layer Edge.Cuts) (width 0.2) (tstamp 5C6BC0CB))
  (gr_poly (pts (xy 20.7 77.75) (xy 149.7 77.75) (xy 149.7 76.25) (xy 20.7 76.25)) (layer F.Fab) (width 0.15) (tstamp 5C6BC0CA))
  (gr_circle (center 34.6 69.5) (end 41.2 69.5) (layer Edge.Cuts) (width 0.2) (tstamp 5C6BC0C9))
  (gr_line (start 15.2 60.15) (end 20.2 60.15) (layer F.Fab) (width 0.2) (tstamp 5C6BC0C6))
  (gr_circle (center 147.7 20.25) (end 149.7 20.25) (layer Edge.Cuts) (width 0.2) (tstamp 5C6BBCC0))
  (gr_circle (center 147.7 45.75) (end 149.7 45.75) (layer Edge.Cuts) (width 0.2) (tstamp 5C6BBCBF))
  (gr_circle (center 22.7 45.75) (end 24.7 45.75) (layer Edge.Cuts) (width 0.2) (tstamp 5C6BBBF3))
  (gr_circle (center 22.7 20.25) (end 24.7 20.25) (layer Edge.Cuts) (width 0.2) (tstamp 5C6BBBF3))
  (gr_line (start 15.2 41.85) (end 22.2 41.85) (layer F.Fab) (width 0.2) (tstamp 5C6BBA41))
  (gr_line (start 15.2 40.15) (end 22.2 40.15) (layer F.Fab) (width 0.2) (tstamp 5C6BBA40))
  (gr_line (start 15.2 38.65) (end 20.2 38.65) (layer F.Fab) (width 0.2) (tstamp 5C6BBA41))
  (gr_line (start 15.2 36.95) (end 20.2 36.95) (layer F.Fab) (width 0.2) (tstamp 5C6BBA40))
  (gr_line (start 15.2 35.45) (end 20.2 35.45) (layer F.Fab) (width 0.2) (tstamp 5C6BBA41))
  (gr_line (start 15.2 33.75) (end 20.2 33.75) (layer F.Fab) (width 0.2) (tstamp 5C6BBA40))
  (gr_line (start 15.2 32.25) (end 20.2 32.25) (layer F.Fab) (width 0.2) (tstamp 5C6BBA41))
  (gr_line (start 15.2 30.55) (end 20.2 30.55) (layer F.Fab) (width 0.2) (tstamp 5C6BBA40))
  (gr_line (start 15.2 29.05) (end 20.2 29.05) (layer F.Fab) (width 0.2) (tstamp 5C6BBA41))
  (gr_line (start 15.2 27.35) (end 20.2 27.35) (layer F.Fab) (width 0.2) (tstamp 5C6BBA40))
  (gr_line (start 15.2 25.85) (end 20.2 25.85) (layer F.Fab) (width 0.2) (tstamp 5C6BBA12))
  (gr_line (start 15.2 24.15) (end 20.2 24.15) (layer F.Fab) (width 0.2))
  (dimension 35 (width 0.3) (layer F.Fab)
    (gr_text "35.000 mm" (at 160.3 33 90) (layer F.Fab)
      (effects (font (size 1.5 1.5) (thickness 0.3)))
    )
    (feature1 (pts (xy 155.2 15.5) (xy 158.786421 15.5)))
    (feature2 (pts (xy 155.2 50.5) (xy 158.786421 50.5)))
    (crossbar (pts (xy 158.2 50.5) (xy 158.2 15.5)))
    (arrow1a (pts (xy 158.2 15.5) (xy 158.786421 16.626504)))
    (arrow1b (pts (xy 158.2 15.5) (xy 157.613579 16.626504)))
    (arrow2a (pts (xy 158.2 50.5) (xy 158.786421 49.373496)))
    (arrow2b (pts (xy 158.2 50.5) (xy 157.613579 49.373496)))
  )
  (gr_line (start 155.2 19.5) (end 155.2 46.5) (layer Edge.Cuts) (width 0.15) (tstamp 5C6BB746))
  (gr_line (start 151.2 50.5) (end 19.2 50.5) (layer Edge.Cuts) (width 0.15) (tstamp 5C6BB743))
  (gr_line (start 19.2 15.5) (end 151.2 15.5) (layer Edge.Cuts) (width 0.15) (tstamp 5C6BB740))
  (gr_line (start 15.2 46.5) (end 15.2 19.5) (layer Edge.Cuts) (width 0.15) (tstamp 5C6BB73D))

  (zone (net 0) (net_name "") (layer F.Cu) (tstamp 5C743851) (hatch edge 0.508)
    (connect_pads (clearance 0.508))
    (min_thickness 0.254)
    (fill yes (arc_segments 16) (thermal_gap 0.508) (thermal_bridge_width 0.508))
    (polygon
      (pts
        (xy 152.7 50.5) (xy 17.45 50.5) (xy 15.2 48.25) (xy 15.2 18) (xy 17.7 15.5)
        (xy 152.95 15.5) (xy 155.2 18) (xy 155.2 48.25)
      )
    )
    (filled_polygon
      (pts
        (xy 151.860809 16.280776) (xy 152.494631 16.479404) (xy 153.075562 16.801418) (xy 153.579879 17.23367) (xy 153.986981 17.758503)
        (xy 154.280234 18.354473) (xy 154.449868 19.005707) (xy 154.49 19.527269) (xy 154.490001 46.464026) (xy 154.419224 47.160812)
        (xy 154.220596 47.794631) (xy 153.898582 48.375561) (xy 153.466329 48.879879) (xy 152.941497 49.286981) (xy 152.345532 49.580232)
        (xy 151.694297 49.749867) (xy 151.172731 49.79) (xy 19.235964 49.79) (xy 18.539188 49.719224) (xy 17.905369 49.520596)
        (xy 17.324439 49.198582) (xy 16.820121 48.766329) (xy 16.413019 48.241497) (xy 16.119768 47.645532) (xy 15.950133 46.994297)
        (xy 15.91 46.472731) (xy 15.91 45.783658) (xy 19.945206 45.783658) (xy 20.06538 46.555484) (xy 20.397351 47.262558)
        (xy 20.91443 47.848038) (xy 21.57505 48.264858) (xy 22.326104 48.47951) (xy 23.107215 48.474739) (xy 23.85559 48.250927)
        (xy 24.511069 47.826067) (xy 25.020956 47.234314) (xy 25.344264 46.523237) (xy 25.450179 45.783658) (xy 144.945206 45.783658)
        (xy 145.06538 46.555484) (xy 145.397351 47.262558) (xy 145.91443 47.848038) (xy 146.57505 48.264858) (xy 147.326104 48.47951)
        (xy 148.107215 48.474739) (xy 148.85559 48.250927) (xy 149.511069 47.826067) (xy 150.020956 47.234314) (xy 150.344264 46.523237)
        (xy 150.455 45.75) (xy 150.454178 45.682689) (xy 150.324582 44.912389) (xy 149.983999 44.209424) (xy 149.459805 43.630304)
        (xy 148.794142 43.221586) (xy 148.040522 43.016126) (xy 147.259527 43.03044) (xy 146.513942 43.263378) (xy 145.863703 43.696214)
        (xy 145.361083 44.294152) (xy 145.046487 45.009126) (xy 144.945206 45.783658) (xy 25.450179 45.783658) (xy 25.455 45.75)
        (xy 25.454178 45.682689) (xy 25.324582 44.912389) (xy 24.983999 44.209424) (xy 24.459805 43.630304) (xy 23.794142 43.221586)
        (xy 23.040522 43.016126) (xy 22.259527 43.03044) (xy 21.513942 43.263378) (xy 20.863703 43.696214) (xy 20.361083 44.294152)
        (xy 20.046487 45.009126) (xy 19.945206 45.783658) (xy 15.91 45.783658) (xy 15.91 35.84204) (xy 46.720667 35.84204)
        (xy 46.720667 36.65796) (xy 46.923578 37.448245) (xy 47.31665 38.163241) (xy 47.875185 38.758021) (xy 48.564088 39.195212)
        (xy 49.340074 39.447345) (xy 50.154383 39.498577) (xy 50.95585 39.345689) (xy 51.694116 38.998287) (xy 52.322793 38.478201)
        (xy 52.802378 37.818108) (xy 53.102738 37.059486) (xy 53.103276 37.05522) (xy 58.495386 37.05522) (xy 58.605894 37.929987)
        (xy 58.90746 38.758532) (xy 59.385095 39.499676) (xy 60.015059 40.116583) (xy 60.766043 40.578591) (xy 61.600722 40.862739)
        (xy 62.477611 40.954904) (xy 63.353128 40.850505) (xy 64.183758 40.55473) (xy 64.928218 40.082282) (xy 65.549508 39.456639)
        (xy 66.016748 38.708899) (xy 66.306716 37.876224) (xy 66.398806 37.05522) (xy 68.945386 37.05522) (xy 69.055894 37.929987)
        (xy 69.35746 38.758532) (xy 69.835095 39.499676) (xy 70.465059 40.116583) (xy 71.216043 40.578591) (xy 72.050722 40.862739)
        (xy 72.927611 40.954904) (xy 73.803128 40.850505) (xy 74.633758 40.55473) (xy 75.378218 40.082282) (xy 75.999508 39.456639)
        (xy 76.466748 38.708899) (xy 76.756716 37.876224) (xy 76.855 37) (xy 76.853458 36.88957) (xy 76.730746 36.016431)
        (xy 76.417642 35.192178) (xy 75.929706 34.457775) (xy 75.291189 33.849724) (xy 74.533828 33.398246) (xy 73.695263 33.12578)
        (xy 72.817173 33.045867) (xy 71.943199 33.16248) (xy 71.116779 33.469823) (xy 70.378988 33.95262) (xy 69.766494 34.586876)
        (xy 69.30974 35.341067) (xy 69.031426 36.177709) (xy 68.945386 37.05522) (xy 66.398806 37.05522) (xy 66.405 37)
        (xy 66.403458 36.88957) (xy 66.280746 36.016431) (xy 65.967642 35.192178) (xy 65.479706 34.457775) (xy 64.841189 33.849724)
        (xy 64.083828 33.398246) (xy 63.245263 33.12578) (xy 62.367173 33.045867) (xy 61.493199 33.16248) (xy 60.666779 33.469823)
        (xy 59.928988 33.95262) (xy 59.316494 34.586876) (xy 58.85974 35.341067) (xy 58.581426 36.177709) (xy 58.495386 37.05522)
        (xy 53.103276 37.05522) (xy 53.205 36.25) (xy 53.102738 35.440514) (xy 52.802378 34.681892) (xy 52.322793 34.021799)
        (xy 51.694116 33.501713) (xy 50.95585 33.154311) (xy 50.154383 33.001423) (xy 49.340074 33.052655) (xy 48.564088 33.304788)
        (xy 47.875185 33.741979) (xy 47.31665 34.336759) (xy 46.923578 35.051755) (xy 46.720667 35.84204) (xy 15.91 35.84204)
        (xy 15.91 30) (xy 84.450601 30) (xy 84.465001 30.072393) (xy 84.465 39.927612) (xy 84.450601 40)
        (xy 84.507646 40.286783) (xy 84.670095 40.529905) (xy 84.913217 40.692354) (xy 85.2 40.749399) (xy 85.272388 40.735)
        (xy 114.627612 40.735) (xy 114.7 40.749399) (xy 114.772388 40.735) (xy 114.986783 40.692354) (xy 115.229905 40.529905)
        (xy 115.392354 40.286783) (xy 115.449399 40) (xy 115.435 39.927612) (xy 115.435 30.072388) (xy 115.449399 30)
        (xy 115.392354 29.713217) (xy 115.229905 29.470095) (xy 114.986783 29.307646) (xy 114.772388 29.265) (xy 114.7 29.250601)
        (xy 114.627612 29.265) (xy 85.272388 29.265) (xy 85.2 29.250601) (xy 85.127612 29.265) (xy 84.913217 29.307646)
        (xy 84.670095 29.470095) (xy 84.507646 29.713217) (xy 84.450601 30) (xy 15.91 30) (xy 15.91 25)
        (xy 30.700601 25) (xy 30.715 25.072388) (xy 30.715001 27.927607) (xy 30.700601 28) (xy 30.757646 28.286783)
        (xy 30.920095 28.529905) (xy 31.163217 28.692354) (xy 31.377612 28.735) (xy 31.45 28.749399) (xy 31.522388 28.735)
        (xy 39.377612 28.735) (xy 39.45 28.749399) (xy 39.522388 28.735) (xy 39.736783 28.692354) (xy 39.979905 28.529905)
        (xy 40.142354 28.286783) (xy 40.199399 28) (xy 40.185 27.927612) (xy 40.185 25.072388) (xy 40.199399 25)
        (xy 40.142354 24.713217) (xy 39.979905 24.470095) (xy 39.736783 24.307646) (xy 39.522388 24.265) (xy 39.45 24.250601)
        (xy 39.377612 24.265) (xy 31.522388 24.265) (xy 31.45 24.250601) (xy 31.377612 24.265) (xy 31.163217 24.307646)
        (xy 30.920095 24.470095) (xy 30.757646 24.713217) (xy 30.700601 25) (xy 15.91 25) (xy 15.91 20.283658)
        (xy 19.945206 20.283658) (xy 20.06538 21.055484) (xy 20.397351 21.762558) (xy 20.91443 22.348038) (xy 21.57505 22.764858)
        (xy 22.326104 22.97951) (xy 23.107215 22.974739) (xy 23.85559 22.750927) (xy 24.511069 22.326067) (xy 25.020956 21.734314)
        (xy 25.344264 21.023237) (xy 25.450179 20.283658) (xy 144.945206 20.283658) (xy 145.06538 21.055484) (xy 145.397351 21.762558)
        (xy 145.91443 22.348038) (xy 146.57505 22.764858) (xy 147.326104 22.97951) (xy 148.107215 22.974739) (xy 148.85559 22.750927)
        (xy 149.511069 22.326067) (xy 150.020956 21.734314) (xy 150.344264 21.023237) (xy 150.455 20.25) (xy 150.454178 20.182689)
        (xy 150.324582 19.412389) (xy 149.983999 18.709424) (xy 149.459805 18.130304) (xy 148.794142 17.721586) (xy 148.040522 17.516126)
        (xy 147.259527 17.53044) (xy 146.513942 17.763378) (xy 145.863703 18.196214) (xy 145.361083 18.794152) (xy 145.046487 19.509126)
        (xy 144.945206 20.283658) (xy 25.450179 20.283658) (xy 25.455 20.25) (xy 25.454178 20.182689) (xy 25.324582 19.412389)
        (xy 24.983999 18.709424) (xy 24.459805 18.130304) (xy 23.794142 17.721586) (xy 23.040522 17.516126) (xy 22.259527 17.53044)
        (xy 21.513942 17.763378) (xy 20.863703 18.196214) (xy 20.361083 18.794152) (xy 20.046487 19.509126) (xy 19.945206 20.283658)
        (xy 15.91 20.283658) (xy 15.91 19.535964) (xy 15.980776 18.839191) (xy 16.179404 18.205369) (xy 16.501418 17.624438)
        (xy 16.93367 17.120121) (xy 17.458503 16.713019) (xy 18.054473 16.419766) (xy 18.705707 16.250132) (xy 19.227269 16.21)
        (xy 151.164036 16.21)
      )
    )
    (filled_polygon
      (pts
        (xy 22.886979 44.498895) (xy 23.230607 44.601661) (xy 23.53158 44.796742) (xy 23.765702 45.068455) (xy 23.914154 45.394957)
        (xy 23.965 45.75) (xy 23.964622 45.780907) (xy 23.905117 46.134602) (xy 23.748733 46.457379) (xy 23.508041 46.72329)
        (xy 23.202392 46.91096) (xy 22.856356 47.0053) (xy 22.49775 46.998727) (xy 22.155403 46.89177) (xy 21.856836 46.693027)
        (xy 21.626051 46.418474) (xy 21.481599 46.090184) (xy 21.435094 45.734545) (xy 21.490274 45.38015) (xy 21.642704 45.055486)
        (xy 21.880128 44.786654) (xy 22.183462 44.595265) (xy 22.52832 44.496704)
      )
    )
    (filled_polygon
      (pts
        (xy 147.886979 44.498895) (xy 148.230607 44.601661) (xy 148.53158 44.796742) (xy 148.765702 45.068455) (xy 148.914154 45.394957)
        (xy 148.965 45.75) (xy 148.964622 45.780907) (xy 148.905117 46.134602) (xy 148.748733 46.457379) (xy 148.508041 46.72329)
        (xy 148.202392 46.91096) (xy 147.856356 47.0053) (xy 147.49775 46.998727) (xy 147.155403 46.89177) (xy 146.856836 46.693027)
        (xy 146.626051 46.418474) (xy 146.481599 46.090184) (xy 146.435094 45.734545) (xy 146.490274 45.38015) (xy 146.642704 45.055486)
        (xy 146.880128 44.786654) (xy 147.183462 44.595265) (xy 147.52832 44.496704)
      )
    )
    (filled_polygon
      (pts
        (xy 73.462885 34.600128) (xy 73.980585 34.784473) (xy 74.444578 35.078932) (xy 74.831804 35.468871) (xy 75.123017 35.934909)
        (xy 75.303743 36.453883) (xy 75.365 37) (xy 75.364039 37.068827) (xy 75.287557 37.613021) (xy 75.092411 38.126746)
        (xy 74.7883 38.584471) (xy 74.390337 38.963446) (xy 73.918302 39.244835) (xy 73.395657 39.414653) (xy 72.848377 39.464459)
        (xy 72.303663 39.391779) (xy 71.788587 39.200224) (xy 71.32875 38.899315) (xy 70.947006 38.504008) (xy 70.662329 38.033949)
        (xy 70.488866 37.512502) (xy 70.43524 36.965583) (xy 70.504116 36.420375) (xy 70.692071 35.903974) (xy 70.989762 35.442048)
        (xy 71.382394 35.057553) (xy 71.850454 34.769601) (xy 72.370677 34.592503) (xy 72.917209 34.53506)
      )
    )
    (filled_polygon
      (pts
        (xy 63.012885 34.600128) (xy 63.530585 34.784473) (xy 63.994578 35.078932) (xy 64.381804 35.468871) (xy 64.673017 35.934909)
        (xy 64.853743 36.453883) (xy 64.915 37) (xy 64.914039 37.068827) (xy 64.837557 37.613021) (xy 64.642411 38.126746)
        (xy 64.3383 38.584471) (xy 63.940337 38.963446) (xy 63.468302 39.244835) (xy 62.945657 39.414653) (xy 62.398377 39.464459)
        (xy 61.853663 39.391779) (xy 61.338587 39.200224) (xy 60.87875 38.899315) (xy 60.497006 38.504008) (xy 60.212329 38.033949)
        (xy 60.038866 37.512502) (xy 59.98524 36.965583) (xy 60.054116 36.420375) (xy 60.242071 35.903974) (xy 60.539762 35.442048)
        (xy 60.932394 35.057553) (xy 61.400454 34.769601) (xy 61.920677 34.592503) (xy 62.467209 34.53506)
      )
    )
    (filled_polygon
      (pts
        (xy 113.965001 39.265) (xy 85.935 39.265) (xy 85.935 30.735) (xy 113.965 30.735)
      )
    )
    (filled_polygon
      (pts
        (xy 50.495415 34.571385) (xy 50.895734 34.759761) (xy 51.23663 35.041774) (xy 51.496681 35.399705) (xy 51.659549 35.811062)
        (xy 51.715 36.25) (xy 51.659549 36.688938) (xy 51.496681 37.100295) (xy 51.23663 37.458226) (xy 50.895734 37.740239)
        (xy 50.495415 37.928615) (xy 50.060825 38.011517) (xy 49.619272 37.983737) (xy 49.1985 37.84702) (xy 48.824947 37.609956)
        (xy 48.522085 37.287441) (xy 48.308945 36.89974) (xy 48.198918 36.471213) (xy 48.198918 36.028787) (xy 48.308945 35.60026)
        (xy 48.522085 35.212559) (xy 48.824947 34.890044) (xy 49.1985 34.65298) (xy 49.619272 34.516263) (xy 50.060825 34.488483)
      )
    )
    (filled_polygon
      (pts
        (xy 38.715 27.265) (xy 32.185 27.265) (xy 32.185 25.735) (xy 38.715001 25.735)
      )
    )
    (filled_polygon
      (pts
        (xy 147.886979 18.998895) (xy 148.230607 19.101661) (xy 148.53158 19.296742) (xy 148.765702 19.568455) (xy 148.914154 19.894957)
        (xy 148.965 20.25) (xy 148.964622 20.280907) (xy 148.905117 20.634602) (xy 148.748733 20.957379) (xy 148.508041 21.22329)
        (xy 148.202392 21.41096) (xy 147.856356 21.5053) (xy 147.49775 21.498727) (xy 147.155403 21.39177) (xy 146.856836 21.193027)
        (xy 146.626051 20.918474) (xy 146.481599 20.590184) (xy 146.435094 20.234545) (xy 146.490274 19.88015) (xy 146.642704 19.555486)
        (xy 146.880128 19.286654) (xy 147.183462 19.095265) (xy 147.52832 18.996704)
      )
    )
    (filled_polygon
      (pts
        (xy 22.886979 18.998895) (xy 23.230607 19.101661) (xy 23.53158 19.296742) (xy 23.765702 19.568455) (xy 23.914154 19.894957)
        (xy 23.965 20.25) (xy 23.964622 20.280907) (xy 23.905117 20.634602) (xy 23.748733 20.957379) (xy 23.508041 21.22329)
        (xy 23.202392 21.41096) (xy 22.856356 21.5053) (xy 22.49775 21.498727) (xy 22.155403 21.39177) (xy 21.856836 21.193027)
        (xy 21.626051 20.918474) (xy 21.481599 20.590184) (xy 21.435094 20.234545) (xy 21.490274 19.88015) (xy 21.642704 19.555486)
        (xy 21.880128 19.286654) (xy 22.183462 19.095265) (xy 22.52832 18.996704)
      )
    )
  )
  (zone (net 0) (net_name "") (layer F.Cu) (tstamp 5C74384E) (hatch edge 0.508)
    (connect_pads (clearance 0.508))
    (min_thickness 0.254)
    (fill yes (arc_segments 16) (thermal_gap 0.508) (thermal_bridge_width 0.508))
    (polygon
      (pts
        (xy 151.95 86.5) (xy 17.95 86.5) (xy 15.2 83.75) (xy 15.2 54) (xy 17.7 51.5)
        (xy 152.95 51.5) (xy 155.2 54) (xy 155.2 83.75)
      )
    )
    (filled_polygon
      (pts
        (xy 151.860809 52.280776) (xy 152.494631 52.479404) (xy 153.075562 52.801418) (xy 153.579879 53.23367) (xy 153.986981 53.758503)
        (xy 154.280234 54.354473) (xy 154.449868 55.005707) (xy 154.49 55.527269) (xy 154.490001 82.464026) (xy 154.419224 83.160812)
        (xy 154.220596 83.794631) (xy 153.898582 84.375561) (xy 153.466329 84.879879) (xy 152.941497 85.286981) (xy 152.345532 85.580232)
        (xy 151.694297 85.749867) (xy 151.172731 85.79) (xy 19.235964 85.79) (xy 18.539188 85.719224) (xy 17.905369 85.520596)
        (xy 17.324439 85.198582) (xy 16.820121 84.766329) (xy 16.413019 84.241497) (xy 16.119768 83.645532) (xy 15.950133 82.994297)
        (xy 15.91 82.472731) (xy 15.91 81.783658) (xy 19.945206 81.783658) (xy 20.06538 82.555484) (xy 20.397351 83.262558)
        (xy 20.91443 83.848038) (xy 21.57505 84.264858) (xy 22.326104 84.47951) (xy 23.107215 84.474739) (xy 23.85559 84.250927)
        (xy 24.511069 83.826067) (xy 25.020956 83.234314) (xy 25.344264 82.523237) (xy 25.450179 81.783658) (xy 144.945206 81.783658)
        (xy 145.06538 82.555484) (xy 145.397351 83.262558) (xy 145.91443 83.848038) (xy 146.57505 84.264858) (xy 147.326104 84.47951)
        (xy 148.107215 84.474739) (xy 148.85559 84.250927) (xy 149.511069 83.826067) (xy 150.020956 83.234314) (xy 150.344264 82.523237)
        (xy 150.455 81.75) (xy 150.454178 81.682689) (xy 150.324582 80.912389) (xy 149.983999 80.209424) (xy 149.459805 79.630304)
        (xy 148.794142 79.221586) (xy 148.040522 79.016126) (xy 147.259527 79.03044) (xy 146.513942 79.263378) (xy 145.863703 79.696214)
        (xy 145.361083 80.294152) (xy 145.046487 81.009126) (xy 144.945206 81.783658) (xy 25.450179 81.783658) (xy 25.455 81.75)
        (xy 25.454178 81.682689) (xy 25.324582 80.912389) (xy 24.983999 80.209424) (xy 24.459805 79.630304) (xy 23.794142 79.221586)
        (xy 23.040522 79.016126) (xy 22.259527 79.03044) (xy 21.513942 79.263378) (xy 20.863703 79.696214) (xy 20.361083 80.294152)
        (xy 20.046487 81.009126) (xy 19.945206 81.783658) (xy 15.91 81.783658) (xy 15.91 69.5) (xy 27.245 69.5)
        (xy 27.335552 70.650575) (xy 27.604979 71.77282) (xy 28.046647 72.8391) (xy 28.64968 73.823161) (xy 29.39923 74.70077)
        (xy 30.276839 75.45032) (xy 31.2609 76.053353) (xy 32.32718 76.495021) (xy 33.449425 76.764448) (xy 34.6 76.855)
        (xy 35.750575 76.764448) (xy 36.87282 76.495021) (xy 37.9391 76.053353) (xy 38.923161 75.45032) (xy 39.80077 74.70077)
        (xy 40.55032 73.823161) (xy 41.153353 72.8391) (xy 41.595021 71.77282) (xy 41.864448 70.650575) (xy 41.955 69.5)
        (xy 41.864448 68.349425) (xy 41.595021 67.22718) (xy 41.153353 66.1609) (xy 40.55032 65.176839) (xy 39.80077 64.29923)
        (xy 38.923161 63.54968) (xy 37.9391 62.946647) (xy 36.87282 62.504979) (xy 36.852081 62.5) (xy 45.450601 62.5)
        (xy 45.465001 62.572393) (xy 45.465 76.177612) (xy 45.450601 76.25) (xy 45.507646 76.536783) (xy 45.659767 76.764448)
        (xy 45.670095 76.779905) (xy 45.913217 76.942354) (xy 46.2 76.999399) (xy 46.272388 76.985) (xy 54.377612 76.985)
        (xy 54.45 76.999399) (xy 54.522388 76.985) (xy 54.736783 76.942354) (xy 54.979905 76.779905) (xy 55.142354 76.536783)
        (xy 55.199399 76.25) (xy 55.185 76.177612) (xy 55.185 69.5) (xy 68.445 69.5) (xy 68.535552 70.650575)
        (xy 68.804979 71.77282) (xy 69.246647 72.8391) (xy 69.84968 73.823161) (xy 70.59923 74.70077) (xy 71.476839 75.45032)
        (xy 72.4609 76.053353) (xy 73.52718 76.495021) (xy 74.649425 76.764448) (xy 75.8 76.855) (xy 76.950575 76.764448)
        (xy 78.07282 76.495021) (xy 79.1391 76.053353) (xy 80.123161 75.45032) (xy 81.00077 74.70077) (xy 81.75032 73.823161)
        (xy 82.353353 72.8391) (xy 82.795021 71.77282) (xy 83.064448 70.650575) (xy 83.155 69.5) (xy 83.064448 68.349425)
        (xy 82.795021 67.22718) (xy 82.353353 66.1609) (xy 81.75032 65.176839) (xy 81.00077 64.29923) (xy 80.123161 63.54968)
        (xy 79.1391 62.946647) (xy 78.07282 62.504979) (xy 78.052081 62.5) (xy 86.450601 62.5) (xy 86.465001 62.572393)
        (xy 86.465 76.177612) (xy 86.450601 76.25) (xy 86.507646 76.536783) (xy 86.659767 76.764448) (xy 86.670095 76.779905)
        (xy 86.913217 76.942354) (xy 87.2 76.999399) (xy 87.272388 76.985) (xy 95.377612 76.985) (xy 95.45 76.999399)
        (xy 95.522388 76.985) (xy 95.736783 76.942354) (xy 95.979905 76.779905) (xy 96.142354 76.536783) (xy 96.199399 76.25)
        (xy 96.185 76.177612) (xy 96.185 69.5) (xy 107.945 69.5) (xy 108.035552 70.650575) (xy 108.304979 71.77282)
        (xy 108.746647 72.8391) (xy 109.34968 73.823161) (xy 110.09923 74.70077) (xy 110.976839 75.45032) (xy 111.9609 76.053353)
        (xy 113.02718 76.495021) (xy 114.149425 76.764448) (xy 115.3 76.855) (xy 116.450575 76.764448) (xy 117.57282 76.495021)
        (xy 118.6391 76.053353) (xy 119.623161 75.45032) (xy 120.50077 74.70077) (xy 121.25032 73.823161) (xy 121.853353 72.8391)
        (xy 122.295021 71.77282) (xy 122.564448 70.650575) (xy 122.655 69.5) (xy 130.845 69.5) (xy 130.935552 70.650575)
        (xy 131.204979 71.77282) (xy 131.646647 72.8391) (xy 132.24968 73.823161) (xy 132.99923 74.70077) (xy 133.876839 75.45032)
        (xy 134.8609 76.053353) (xy 135.92718 76.495021) (xy 137.049425 76.764448) (xy 138.2 76.855) (xy 139.350575 76.764448)
        (xy 140.47282 76.495021) (xy 141.5391 76.053353) (xy 142.523161 75.45032) (xy 143.40077 74.70077) (xy 144.15032 73.823161)
        (xy 144.753353 72.8391) (xy 145.195021 71.77282) (xy 145.464448 70.650575) (xy 145.555 69.5) (xy 145.464448 68.349425)
        (xy 145.195021 67.22718) (xy 144.753353 66.1609) (xy 144.15032 65.176839) (xy 143.40077 64.29923) (xy 142.523161 63.54968)
        (xy 141.5391 62.946647) (xy 140.47282 62.504979) (xy 139.350575 62.235552) (xy 138.2 62.145) (xy 137.049425 62.235552)
        (xy 135.92718 62.504979) (xy 134.8609 62.946647) (xy 133.876839 63.54968) (xy 132.99923 64.29923) (xy 132.24968 65.176839)
        (xy 131.646647 66.1609) (xy 131.204979 67.22718) (xy 130.935552 68.349425) (xy 130.845 69.5) (xy 122.655 69.5)
        (xy 122.564448 68.349425) (xy 122.295021 67.22718) (xy 121.853353 66.1609) (xy 121.25032 65.176839) (xy 120.50077 64.29923)
        (xy 119.623161 63.54968) (xy 118.6391 62.946647) (xy 117.57282 62.504979) (xy 116.450575 62.235552) (xy 115.3 62.145)
        (xy 114.149425 62.235552) (xy 113.02718 62.504979) (xy 111.9609 62.946647) (xy 110.976839 63.54968) (xy 110.09923 64.29923)
        (xy 109.34968 65.176839) (xy 108.746647 66.1609) (xy 108.304979 67.22718) (xy 108.035552 68.349425) (xy 107.945 69.5)
        (xy 96.185 69.5) (xy 96.185 62.572388) (xy 96.199399 62.5) (xy 96.142354 62.213217) (xy 95.979905 61.970095)
        (xy 95.736783 61.807646) (xy 95.522388 61.765) (xy 95.45 61.750601) (xy 95.377612 61.765) (xy 87.272388 61.765)
        (xy 87.2 61.750601) (xy 87.127612 61.765) (xy 86.913217 61.807646) (xy 86.670095 61.970095) (xy 86.507646 62.213217)
        (xy 86.450601 62.5) (xy 78.052081 62.5) (xy 76.950575 62.235552) (xy 75.8 62.145) (xy 74.649425 62.235552)
        (xy 73.52718 62.504979) (xy 72.4609 62.946647) (xy 71.476839 63.54968) (xy 70.59923 64.29923) (xy 69.84968 65.176839)
        (xy 69.246647 66.1609) (xy 68.804979 67.22718) (xy 68.535552 68.349425) (xy 68.445 69.5) (xy 55.185 69.5)
        (xy 55.185 62.572388) (xy 55.199399 62.5) (xy 55.142354 62.213217) (xy 54.979905 61.970095) (xy 54.736783 61.807646)
        (xy 54.522388 61.765) (xy 54.45 61.750601) (xy 54.377612 61.765) (xy 46.272388 61.765) (xy 46.2 61.750601)
        (xy 46.127612 61.765) (xy 45.913217 61.807646) (xy 45.670095 61.970095) (xy 45.507646 62.213217) (xy 45.450601 62.5)
        (xy 36.852081 62.5) (xy 35.750575 62.235552) (xy 34.6 62.145) (xy 33.449425 62.235552) (xy 32.32718 62.504979)
        (xy 31.2609 62.946647) (xy 30.276839 63.54968) (xy 29.39923 64.29923) (xy 28.64968 65.176839) (xy 28.046647 66.1609)
        (xy 27.604979 67.22718) (xy 27.335552 68.349425) (xy 27.245 69.5) (xy 15.91 69.5) (xy 15.91 56.283658)
        (xy 19.945206 56.283658) (xy 20.06538 57.055484) (xy 20.397351 57.762558) (xy 20.91443 58.348038) (xy 21.57505 58.764858)
        (xy 22.326104 58.97951) (xy 23.107215 58.974739) (xy 23.85559 58.750927) (xy 24.511069 58.326067) (xy 25.020956 57.734314)
        (xy 25.344264 57.023237) (xy 25.450179 56.283658) (xy 144.945206 56.283658) (xy 145.06538 57.055484) (xy 145.397351 57.762558)
        (xy 145.91443 58.348038) (xy 146.57505 58.764858) (xy 147.326104 58.97951) (xy 148.107215 58.974739) (xy 148.85559 58.750927)
        (xy 149.511069 58.326067) (xy 150.020956 57.734314) (xy 150.344264 57.023237) (xy 150.455 56.25) (xy 150.454178 56.182689)
        (xy 150.324582 55.412389) (xy 149.983999 54.709424) (xy 149.459805 54.130304) (xy 148.794142 53.721586) (xy 148.040522 53.516126)
        (xy 147.259527 53.53044) (xy 146.513942 53.763378) (xy 145.863703 54.196214) (xy 145.361083 54.794152) (xy 145.046487 55.509126)
        (xy 144.945206 56.283658) (xy 25.450179 56.283658) (xy 25.455 56.25) (xy 25.454178 56.182689) (xy 25.324582 55.412389)
        (xy 24.983999 54.709424) (xy 24.459805 54.130304) (xy 23.794142 53.721586) (xy 23.040522 53.516126) (xy 22.259527 53.53044)
        (xy 21.513942 53.763378) (xy 20.863703 54.196214) (xy 20.361083 54.794152) (xy 20.046487 55.509126) (xy 19.945206 56.283658)
        (xy 15.91 56.283658) (xy 15.91 55.535964) (xy 15.980776 54.839191) (xy 16.179404 54.205369) (xy 16.501418 53.624438)
        (xy 16.93367 53.120121) (xy 17.458503 52.713019) (xy 18.054473 52.419766) (xy 18.705707 52.250132) (xy 19.227269 52.21)
        (xy 151.164036 52.21)
      )
    )
    (filled_polygon
      (pts
        (xy 22.886979 80.498895) (xy 23.230607 80.601661) (xy 23.53158 80.796742) (xy 23.765702 81.068455) (xy 23.914154 81.394957)
        (xy 23.965 81.75) (xy 23.964622 81.780907) (xy 23.905117 82.134602) (xy 23.748733 82.457379) (xy 23.508041 82.72329)
        (xy 23.202392 82.91096) (xy 22.856356 83.0053) (xy 22.49775 82.998727) (xy 22.155403 82.89177) (xy 21.856836 82.693027)
        (xy 21.626051 82.418474) (xy 21.481599 82.090184) (xy 21.435094 81.734545) (xy 21.490274 81.38015) (xy 21.642704 81.055486)
        (xy 21.880128 80.786654) (xy 22.183462 80.595265) (xy 22.52832 80.496704)
      )
    )
    (filled_polygon
      (pts
        (xy 147.886979 80.498895) (xy 148.230607 80.601661) (xy 148.53158 80.796742) (xy 148.765702 81.068455) (xy 148.914154 81.394957)
        (xy 148.965 81.75) (xy 148.964622 81.780907) (xy 148.905117 82.134602) (xy 148.748733 82.457379) (xy 148.508041 82.72329)
        (xy 148.202392 82.91096) (xy 147.856356 83.0053) (xy 147.49775 82.998727) (xy 147.155403 82.89177) (xy 146.856836 82.693027)
        (xy 146.626051 82.418474) (xy 146.481599 82.090184) (xy 146.435094 81.734545) (xy 146.490274 81.38015) (xy 146.642704 81.055486)
        (xy 146.880128 80.786654) (xy 147.183462 80.595265) (xy 147.52832 80.496704)
      )
    )
    (filled_polygon
      (pts
        (xy 94.715001 75.515) (xy 87.935 75.515) (xy 87.935 63.235) (xy 94.715 63.235)
      )
    )
    (filled_polygon
      (pts
        (xy 53.715001 75.515) (xy 46.935 75.515) (xy 46.935 63.235) (xy 53.715 63.235)
      )
    )
    (filled_polygon
      (pts
        (xy 76.717488 63.707208) (xy 77.612385 63.922054) (xy 78.462654 64.274247) (xy 79.247361 64.755115) (xy 79.947181 65.352819)
        (xy 80.544885 66.052639) (xy 81.025753 66.837346) (xy 81.377946 67.687615) (xy 81.592792 68.582512) (xy 81.665 69.5)
        (xy 81.592792 70.417488) (xy 81.377946 71.312385) (xy 81.025753 72.162654) (xy 80.544885 72.947361) (xy 79.947181 73.647181)
        (xy 79.247361 74.244885) (xy 78.462654 74.725753) (xy 77.612385 75.077946) (xy 76.717488 75.292792) (xy 75.8 75.365)
        (xy 74.882512 75.292792) (xy 73.987615 75.077946) (xy 73.137346 74.725753) (xy 72.352639 74.244885) (xy 71.652819 73.647181)
        (xy 71.055115 72.947361) (xy 70.574247 72.162654) (xy 70.222054 71.312385) (xy 70.007208 70.417488) (xy 69.935 69.5)
        (xy 70.007208 68.582512) (xy 70.222054 67.687615) (xy 70.574247 66.837346) (xy 71.055115 66.052639) (xy 71.652819 65.352819)
        (xy 72.352639 64.755115) (xy 73.137346 64.274247) (xy 73.987615 63.922054) (xy 74.882512 63.707208) (xy 75.8 63.635)
      )
    )
    (filled_polygon
      (pts
        (xy 35.517488 63.707208) (xy 36.412385 63.922054) (xy 37.262654 64.274247) (xy 38.047361 64.755115) (xy 38.747181 65.352819)
        (xy 39.344885 66.052639) (xy 39.825753 66.837346) (xy 40.177946 67.687615) (xy 40.392792 68.582512) (xy 40.465 69.5)
        (xy 40.392792 70.417488) (xy 40.177946 71.312385) (xy 39.825753 72.162654) (xy 39.344885 72.947361) (xy 38.747181 73.647181)
        (xy 38.047361 74.244885) (xy 37.262654 74.725753) (xy 36.412385 75.077946) (xy 35.517488 75.292792) (xy 34.6 75.365)
        (xy 33.682512 75.292792) (xy 32.787615 75.077946) (xy 31.937346 74.725753) (xy 31.152639 74.244885) (xy 30.452819 73.647181)
        (xy 29.855115 72.947361) (xy 29.374247 72.162654) (xy 29.022054 71.312385) (xy 28.807208 70.417488) (xy 28.735 69.5)
        (xy 28.807208 68.582512) (xy 29.022054 67.687615) (xy 29.374247 66.837346) (xy 29.855115 66.052639) (xy 30.452819 65.352819)
        (xy 31.152639 64.755115) (xy 31.937346 64.274247) (xy 32.787615 63.922054) (xy 33.682512 63.707208) (xy 34.6 63.635)
      )
    )
    (filled_polygon
      (pts
        (xy 139.117488 63.707208) (xy 140.012385 63.922054) (xy 140.862654 64.274247) (xy 141.647361 64.755115) (xy 142.347181 65.352819)
        (xy 142.944885 66.052639) (xy 143.425753 66.837346) (xy 143.777946 67.687615) (xy 143.992792 68.582512) (xy 144.065 69.5)
        (xy 143.992792 70.417488) (xy 143.777946 71.312385) (xy 143.425753 72.162654) (xy 142.944885 72.947361) (xy 142.347181 73.647181)
        (xy 141.647361 74.244885) (xy 140.862654 74.725753) (xy 140.012385 75.077946) (xy 139.117488 75.292792) (xy 138.2 75.365)
        (xy 137.282512 75.292792) (xy 136.387615 75.077946) (xy 135.537346 74.725753) (xy 134.752639 74.244885) (xy 134.052819 73.647181)
        (xy 133.455115 72.947361) (xy 132.974247 72.162654) (xy 132.622054 71.312385) (xy 132.407208 70.417488) (xy 132.335 69.5)
        (xy 132.407208 68.582512) (xy 132.622054 67.687615) (xy 132.974247 66.837346) (xy 133.455115 66.052639) (xy 134.052819 65.352819)
        (xy 134.752639 64.755115) (xy 135.537346 64.274247) (xy 136.387615 63.922054) (xy 137.282512 63.707208) (xy 138.2 63.635)
      )
    )
    (filled_polygon
      (pts
        (xy 116.217488 63.707208) (xy 117.112385 63.922054) (xy 117.962654 64.274247) (xy 118.747361 64.755115) (xy 119.447181 65.352819)
        (xy 120.044885 66.052639) (xy 120.525753 66.837346) (xy 120.877946 67.687615) (xy 121.092792 68.582512) (xy 121.165 69.5)
        (xy 121.092792 70.417488) (xy 120.877946 71.312385) (xy 120.525753 72.162654) (xy 120.044885 72.947361) (xy 119.447181 73.647181)
        (xy 118.747361 74.244885) (xy 117.962654 74.725753) (xy 117.112385 75.077946) (xy 116.217488 75.292792) (xy 115.3 75.365)
        (xy 114.382512 75.292792) (xy 113.487615 75.077946) (xy 112.637346 74.725753) (xy 111.852639 74.244885) (xy 111.152819 73.647181)
        (xy 110.555115 72.947361) (xy 110.074247 72.162654) (xy 109.722054 71.312385) (xy 109.507208 70.417488) (xy 109.435 69.5)
        (xy 109.507208 68.582512) (xy 109.722054 67.687615) (xy 110.074247 66.837346) (xy 110.555115 66.052639) (xy 111.152819 65.352819)
        (xy 111.852639 64.755115) (xy 112.637346 64.274247) (xy 113.487615 63.922054) (xy 114.382512 63.707208) (xy 115.3 63.635)
      )
    )
    (filled_polygon
      (pts
        (xy 22.886979 54.998895) (xy 23.230607 55.101661) (xy 23.53158 55.296742) (xy 23.765702 55.568455) (xy 23.914154 55.894957)
        (xy 23.965 56.25) (xy 23.964622 56.280907) (xy 23.905117 56.634602) (xy 23.748733 56.957379) (xy 23.508041 57.22329)
        (xy 23.202392 57.41096) (xy 22.856356 57.5053) (xy 22.49775 57.498727) (xy 22.155403 57.39177) (xy 21.856836 57.193027)
        (xy 21.626051 56.918474) (xy 21.481599 56.590184) (xy 21.435094 56.234545) (xy 21.490274 55.88015) (xy 21.642704 55.555486)
        (xy 21.880128 55.286654) (xy 22.183462 55.095265) (xy 22.52832 54.996704)
      )
    )
    (filled_polygon
      (pts
        (xy 147.886979 54.998895) (xy 148.230607 55.101661) (xy 148.53158 55.296742) (xy 148.765702 55.568455) (xy 148.914154 55.894957)
        (xy 148.965 56.25) (xy 148.964622 56.280907) (xy 148.905117 56.634602) (xy 148.748733 56.957379) (xy 148.508041 57.22329)
        (xy 148.202392 57.41096) (xy 147.856356 57.5053) (xy 147.49775 57.498727) (xy 147.155403 57.39177) (xy 146.856836 57.193027)
        (xy 146.626051 56.918474) (xy 146.481599 56.590184) (xy 146.435094 56.234545) (xy 146.490274 55.88015) (xy 146.642704 55.555486)
        (xy 146.880128 55.286654) (xy 147.183462 55.095265) (xy 147.52832 54.996704)
      )
    )
  )
)
